%YAML 1.1
%TAG !u! tag:unity3d.com,2011:
--- !u!74 &7400000
AnimationClip:
  m_ObjectHideFlags: 0
  m_CorrespondingSourceObject: {fileID: 0}
  m_PrefabInstance: {fileID: 0}
  m_PrefabAsset: {fileID: 0}
  m_Name: DragonBigBlow
  serializedVersion: 6
  m_Legacy: 0
  m_Compressed: 0
  m_UseHighQualityCurve: 1
  m_RotationCurves: []
  m_CompressedRotationCurves: []
  m_EulerCurves: []
  m_PositionCurves: []
  m_ScaleCurves: []
  m_FloatCurves: []
  m_PPtrCurves:
  - curve:
    - time: 0
      value: {fileID: 21300000, guid: ae543d306b02d0448b6a88bc3eba2927, type: 3}
    - time: 0.083333336
      value: {fileID: 21300000, guid: 3cd25bdc02079d44e8223c3a6ea1fcd6, type: 3}
    - time: 0.16666667
      value: {fileID: 21300000, guid: 6966ac936fa37e94d92b67b1a524e496, type: 3}
    - time: 0.25
      value: {fileID: 21300000, guid: a24ddf9dca722e14bb98070ba042269a, type: 3}
    - time: 0.33333334
      value: {fileID: 21300000, guid: cdbcbfe93fa9f3d44b903a213b3921af, type: 3}
    - time: 0.41666666
      value: {fileID: 21300000, guid: ee4eb6ac402ea4448b3df1cee5adaa5d, type: 3}
    - time: 0.5
      value: {fileID: 21300000, guid: 3005ed817bf27e14c866f4d52820acfd, type: 3}
    - time: 0.5833333
      value: {fileID: 21300000, guid: f0cc97fe45e288245bde694cb9bdbb17, type: 3}
    - time: 0.6666667
      value: {fileID: 21300000, guid: d96d985f1eab7e04c8e30870ab906bcd, type: 3}
    - time: 0.75
      value: {fileID: 21300000, guid: 952b7640c8365b2419e1db6380b5603c, type: 3}
    - time: 0.8333333
      value: {fileID: 21300000, guid: 050d0a87fd64b8c45ae661cac95faa8e, type: 3}
    - time: 0.9166667
      value: {fileID: 21300000, guid: aa492e85dca64184b955fc2e562adde9, type: 3}
    - time: 1
      value: {fileID: 21300000, guid: dcef5d3396ce00f49b6bf7bf02108e75, type: 3}
    - time: 1.0833334
      value: {fileID: 21300000, guid: c82d44b0b1f67e94ca164ae690a85605, type: 3}
    - time: 1.1666666
      value: {fileID: 21300000, guid: c9a67d308bae30f4baed77077cea7392, type: 3}
    - time: 1.25
      value: {fileID: 21300000, guid: aa14f744385977846b3df0c8f0b75c44, type: 3}
    attribute: m_Sprite
    path: 
    classID: 212
    script: {fileID: 0}
  m_SampleRate: 12
  m_WrapMode: 0
  m_Bounds:
    m_Center: {x: 0, y: 0, z: 0}
    m_Extent: {x: 0, y: 0, z: 0}
  m_ClipBindingConstant:
    genericBindings:
    - serializedVersion: 2
      path: 0
      attribute: 0
      script: {fileID: 0}
      typeID: 212
      customType: 23
      isPPtrCurve: 1
    pptrCurveMapping:
    - {fileID: 21300000, guid: ae543d306b02d0448b6a88bc3eba2927, type: 3}
    - {fileID: 21300000, guid: 3cd25bdc02079d44e8223c3a6ea1fcd6, type: 3}
    - {fileID: 21300000, guid: 6966ac936fa37e94d92b67b1a524e496, type: 3}
    - {fileID: 21300000, guid: a24ddf9dca722e14bb98070ba042269a, type: 3}
    - {fileID: 21300000, guid: cdbcbfe93fa9f3d44b903a213b3921af, type: 3}
    - {fileID: 21300000, guid: ee4eb6ac402ea4448b3df1cee5adaa5d, type: 3}
    - {fileID: 21300000, guid: 3005ed817bf27e14c866f4d52820acfd, type: 3}
    - {fileID: 21300000, guid: f0cc97fe45e288245bde694cb9bdbb17, type: 3}
    - {fileID: 21300000, guid: d96d985f1eab7e04c8e30870ab906bcd, type: 3}
    - {fileID: 21300000, guid: 952b7640c8365b2419e1db6380b5603c, type: 3}
    - {fileID: 21300000, guid: 050d0a87fd64b8c45ae661cac95faa8e, type: 3}
    - {fileID: 21300000, guid: aa492e85dca64184b955fc2e562adde9, type: 3}
    - {fileID: 21300000, guid: dcef5d3396ce00f49b6bf7bf02108e75, type: 3}
    - {fileID: 21300000, guid: c82d44b0b1f67e94ca164ae690a85605, type: 3}
    - {fileID: 21300000, guid: c9a67d308bae30f4baed77077cea7392, type: 3}
    - {fileID: 21300000, guid: aa14f744385977846b3df0c8f0b75c44, type: 3}
  m_AnimationClipSettings:
    serializedVersion: 2
    m_AdditiveReferencePoseClip: {fileID: 0}
    m_AdditiveReferencePoseTime: 0
    m_StartTime: 0
    m_StopTime: 1.3333334
    m_OrientationOffsetY: 0
    m_Level: 0
    m_CycleOffset: 0
    m_HasAdditiveReferencePose: 0
    m_LoopTime: 1
    m_LoopBlend: 0
    m_LoopBlendOrientation: 0
    m_LoopBlendPositionY: 0
    m_LoopBlendPositionXZ: 0
    m_KeepOriginalOrientation: 0
    m_KeepOriginalPositionY: 1
    m_KeepOriginalPositionXZ: 0
    m_HeightFromFeet: 0
    m_Mirror: 0
  m_EditorCurves: []
  m_EulerEditorCurves: []
  m_HasGenericRootTransform: 0
  m_HasMotionFloatCurves: 0
  m_Events: []
